…
1 - Data Management
-------------------

### Tables

A data table is essentially an unordered list that contains columns
(attributes) and rows. A column represents a typed data entry (e.g.,
integer, double, character, datetime). A row (record) is a single entry
in the table that has various columns (attributes). You will often hear
us use the term ‘schema’, which basically outlines the table name, its
attributes, and their data types. We will walk thru these concepts using
a subset of the TE\_DIVE data table (the data you’ll be using), as shown
below.

    ## # A tibble: 264,622 x 6
    ##    REF       NEWPTT DS_DATE            DE_DATE              LON   LAT
    ##    <chr>      <dbl> <chr>              <chr>              <dbl> <dbl>
    ##  1 tu55-1-09  97623 13-SEP-09 21:29:40 13-SEP-09 21:30:00 -73.9  38.6
    ##  2 tu55-1-09  97623 13-SEP-09 22:04:00 13-SEP-09 22:10:00 -73.9  38.6
    ##  3 tu55-1-09  97623 14-SEP-09 02:56:40 14-SEP-09 03:08:40 -73.8  38.6
    ##  4 tu55-1-09  97623 14-SEP-09 03:16:40 14-SEP-09 03:30:40 -73.8  38.6
    ##  5 tu55-1-09  97623 14-SEP-09 03:42:06 14-SEP-09 03:56:06 -73.8  38.6
    ##  6 tu55-1-09  97623 14-SEP-09 04:02:00 14-SEP-09 04:14:00 -73.8  38.6
    ##  7 tu55-1-09  97623 14-SEP-09 04:22:00 14-SEP-09 04:36:00 -73.8  38.6
    ##  8 tu55-1-09  97623 14-SEP-09 04:42:40 14-SEP-09 04:56:40 -73.8  38.6
    ##  9 tu55-1-09  97623 14-SEP-09 06:02:20 14-SEP-09 06:18:20 -73.8  38.6
    ## 10 tu55-1-09  97623 14-SEP-09 07:34:40 14-SEP-09 07:50:40 -73.8  38.6
    ## # ... with 264,612 more rows
…
